# This file uses centimeters as units for non-parametric coordinates.

v 0.010289 3.693899 0.537330
v 0.010289 3.693899 0.537330
v 0.010289 3.693899 0.537330
v 0.010289 4.480529 0.008454
v 0.010289 4.480529 0.008454
v 0.010289 4.480529 0.008454
v -0.493025 3.693581 0.171651
v -0.493025 3.693581 0.171651
v -0.493025 3.693581 0.171651
v 0.009966 4.480529 0.008219
v 0.009966 4.480529 0.008219
v 0.009966 4.480529 0.008219
v -0.300776 3.693581 -0.420030
v -0.300776 3.693581 -0.420030
v -0.300776 3.693581 -0.420030
v 0.010090 4.480529 0.007840
v 0.010090 4.480529 0.007840
v 0.010090 4.480529 0.007840
v 0.321354 3.693899 -0.420030
v 0.321354 3.693899 -0.420030
v 0.321354 3.693899 -0.420030
v 0.010488 4.480529 0.007840
v 0.010488 4.480529 0.007840
v 0.010488 4.480529 0.007840
v 0.513603 3.694096 0.171651
v 0.513603 3.694096 0.171651
v 0.513603 3.694096 0.171651
v 0.010612 4.480529 0.008219
v 0.010612 4.480529 0.008219
v 0.010612 4.480529 0.008219
v -0.012299 2.867310 0.853258
v -0.012299 2.867310 0.853258
v -0.012299 2.867310 0.853258
v 0.010289 4.381040 0.008638
v 0.010289 4.381040 0.008638
v 0.010289 4.381040 0.008638
v -0.773220 2.856243 0.268287
v -0.773220 2.856243 0.268287
v -0.773220 2.856243 0.268287
v 0.009791 4.381040 0.008276
v 0.009791 4.381040 0.008276
v 0.009791 4.381040 0.008276
v -0.472638 2.850745 -0.672973
v -0.472638 2.850745 -0.672973
v -0.472638 2.850745 -0.672973
v 0.009981 4.381040 0.007691
v 0.009981 4.381040 0.007691
v 0.009981 4.381040 0.007691
v 0.481533 2.847199 -0.725723
v 0.481533 2.847199 -0.725723
v 0.481533 2.847199 -0.725723
v 0.010597 4.381040 0.007691
v 0.010597 4.381040 0.007691
v 0.010597 4.381040 0.007691
v 0.779050 2.855464 0.249185
v 0.779050 2.855464 0.249185
v 0.779050 2.855464 0.249185
v 0.010787 4.381041 0.008276
v 0.010787 4.381041 0.008276
v 0.010787 4.381041 0.008276
v -0.058719 1.618582 1.249922
v -0.058719 1.618582 1.249922
v -0.058719 1.618582 1.249922
v 0.010289 4.140755 0.008856
v 0.010289 4.140755 0.008856
v 0.010289 4.140755 0.008856
v -1.111476 1.587875 0.391528
v -1.111476 1.587875 0.391528
v -1.111476 1.587875 0.391528
v 0.009584 4.140754 0.008344
v 0.009584 4.140754 0.008344
v 0.009584 4.140754 0.008344
v -0.686713 1.581592 -0.992694
v -0.686713 1.581592 -0.992694
v -0.686713 1.581592 -0.992694
v 0.009853 4.140754 0.007515
v 0.009853 4.140754 0.007515
v 0.009853 4.140754 0.007515
v 0.661182 1.558793 -1.149306
v 0.661182 1.558793 -1.149306
v 0.661182 1.558793 -1.149306
v 0.010725 4.140755 0.007515
v 0.010725 4.140755 0.007515
v 0.010725 4.140755 0.007515
v 1.081434 1.582772 0.326743
v 1.081434 1.582772 0.326743
v 1.081434 1.582772 0.326743
v 0.010994 4.140754 0.008344
v 0.010994 4.140754 0.008344
v 0.010994 4.140754 0.008344
v -0.021619 0.493459 1.438158
v -0.021619 0.493459 1.438158
v -0.021619 0.493459 1.438158
v 0.010289 3.755056 0.009006
v 0.010289 3.755056 0.009006
v 0.010289 3.755056 0.009006
v -1.317968 0.478219 0.442399
v -1.317968 0.478219 0.442399
v -1.317968 0.478219 0.442399
v 0.009441 3.755055 0.008390
v 0.009441 3.755055 0.008390
v 0.009441 3.755055 0.008390
v -0.826510 0.499809 -1.122059
v -0.826510 0.499809 -1.122059
v -0.826510 0.499809 -1.122059
v 0.009765 3.755055 0.007393
v 0.009765 3.755055 0.007393
v 0.009765 3.755055 0.007393
v 0.812147 0.469187 -1.218858
v 0.812147 0.469187 -1.218858
v 0.812147 0.469187 -1.218858
v 0.010813 3.755056 0.007393
v 0.010813 3.755056 0.007393
v 0.010813 3.755056 0.007393
v 1.328594 0.474235 0.431724
v 1.328594 0.474235 0.431724
v 1.328594 0.474235 0.431724
v 0.011137 3.755057 0.008390
v 0.011137 3.755057 0.008390
v 0.011137 3.755057 0.008390
v 0.000000 -0.017413 0.381744
v 0.000000 -0.017413 0.381744
v 0.000000 -0.017413 0.381744
v 0.000000 0.746075 0.381744
v 0.000000 0.746075 0.381744
v 0.000000 0.746075 0.381744
v -0.298459 -0.017413 0.238013
v -0.298459 -0.017413 0.238013
v -0.298459 -0.017413 0.238013
v -0.298459 0.746075 0.238013
v -0.298459 0.746075 0.238013
v -0.298459 0.746075 0.238013
v -0.372173 -0.017413 -0.084946
v -0.372173 -0.017413 -0.084946
v -0.372173 -0.017413 -0.084946
v -0.372173 0.746075 -0.084946
v -0.372173 0.746075 -0.084946
v -0.372173 0.746075 -0.084946
v -0.165632 -0.017413 -0.343939
v -0.165632 -0.017413 -0.343939
v -0.165632 -0.017413 -0.343939
v -0.165632 0.746075 -0.343939
v -0.165632 0.746075 -0.343939
v -0.165632 0.746075 -0.343939
v 0.165632 -0.017413 -0.343939
v 0.165632 -0.017413 -0.343939
v 0.165632 -0.017413 -0.343939
v 0.165632 0.746075 -0.343939
v 0.165632 0.746075 -0.343939
v 0.165632 0.746075 -0.343939
v 0.372173 -0.017413 -0.084946
v 0.372173 -0.017413 -0.084946
v 0.372173 -0.017413 -0.084946
v 0.372173 0.746075 -0.084946
v 0.372173 0.746075 -0.084946
v 0.372173 0.746075 -0.084946
v 0.298459 -0.017413 0.238013
v 0.298459 -0.017413 0.238013
v 0.298459 -0.017413 0.238013
v 0.298459 0.746075 0.238013
v 0.298459 0.746075 0.238013
v 0.298459 0.746075 0.238013
vt 0.846911 0.565661
vt 0.846911 0.606214
vt 0.867188 0.606214
vt 0.887464 0.565661
vt 0.886472 0.592203
vt 0.887464 0.606214
vt 0.846911 0.606214
vt 0.846911 0.565661
vt 0.886472 0.592203
vt 0.887464 0.606214
vt 0.887464 0.565661
vt 0.867188 0.606214
vt 0.846911 0.606214
vt 0.846911 0.565661
vt 0.879106 0.569533
vt 0.887464 0.606214
vt 0.887464 0.565661
vt 0.847903 0.592203
vt 0.846911 0.606214
vt 0.846911 0.565661
vt 0.855269 0.569533
vt 0.887464 0.606214
vt 0.855269 0.569533
vt 0.887464 0.565661
vt 0.846911 0.565661
vt 0.846911 0.606214
vt 0.847903 0.592203
vt 0.879106 0.569533
vt 0.887464 0.565661
vt 0.887464 0.606214
vt 0.846911 0.565661
vt 0.846911 0.606214
vt 0.867188 0.606214
vt 0.887464 0.565661
vt 0.886472 0.592203
vt 0.887464 0.606214
vt 0.846911 0.606214
vt 0.846911 0.565661
vt 0.886472 0.592203
vt 0.887464 0.606214
vt 0.887464 0.565661
vt 0.867188 0.606214
vt 0.846911 0.606214
vt 0.846911 0.565661
vt 0.879106 0.569533
vt 0.887464 0.606214
vt 0.887464 0.565661
vt 0.847903 0.592203
vt 0.846911 0.606214
vt 0.846911 0.565661
vt 0.855269 0.569533
vt 0.887464 0.606214
vt 0.855269 0.569533
vt 0.887464 0.565661
vt 0.846911 0.565661
vt 0.846911 0.606214
vt 0.847903 0.592203
vt 0.879106 0.569533
vt 0.887464 0.565661
vt 0.887464 0.606214
vt 0.846911 0.565661
vt 0.846911 0.606214
vt 0.867188 0.606214
vt 0.887464 0.565661
vt 0.886472 0.592203
vt 0.887464 0.606214
vt 0.846911 0.606214
vt 0.846911 0.565661
vt 0.886472 0.592203
vt 0.887464 0.606214
vt 0.887464 0.565661
vt 0.867188 0.606214
vt 0.846911 0.606214
vt 0.846911 0.565661
vt 0.879106 0.569533
vt 0.887464 0.606214
vt 0.887464 0.565661
vt 0.847903 0.592203
vt 0.846911 0.606214
vt 0.846911 0.565661
vt 0.855269 0.569533
vt 0.887464 0.606214
vt 0.855269 0.569533
vt 0.887464 0.565661
vt 0.846911 0.565661
vt 0.846911 0.606214
vt 0.847903 0.592203
vt 0.879106 0.569533
vt 0.887464 0.565661
vt 0.887464 0.606214
vt 0.846911 0.565661
vt 0.846911 0.606214
vt 0.867188 0.606214
vt 0.887464 0.565661
vt 0.886472 0.592203
vt 0.887464 0.606214
vt 0.846911 0.606214
vt 0.846911 0.565661
vt 0.886472 0.592203
vt 0.887464 0.606214
vt 0.887464 0.565661
vt 0.867188 0.606214
vt 0.846911 0.606214
vt 0.846911 0.565661
vt 0.879106 0.569533
vt 0.887464 0.606214
vt 0.887464 0.565661
vt 0.847903 0.592203
vt 0.846911 0.606214
vt 0.846911 0.565661
vt 0.855269 0.569533
vt 0.887464 0.606214
vt 0.855269 0.569533
vt 0.887464 0.565661
vt 0.846911 0.565661
vt 0.846911 0.606214
vt 0.847903 0.592203
vt 0.879106 0.569533
vt 0.887464 0.565661
vt 0.887464 0.606214
vt 0.120903 0.460747
vt 0.120903 0.547065
vt 0.164062 0.547065
vt 0.207222 0.460747
vt 0.197806 0.530816
vt 0.207222 0.547065
vt 0.120903 0.547065
vt 0.120903 0.460747
vt 0.197806 0.530816
vt 0.207222 0.547065
vt 0.207222 0.460747
vt 0.164062 0.547065
vt 0.120903 0.547065
vt 0.120903 0.460747
vt 0.206140 0.494302
vt 0.207222 0.547065
vt 0.207222 0.460747
vt 0.130319 0.530816
vt 0.120903 0.547065
vt 0.120903 0.460747
vt 0.182789 0.465021
vt 0.207222 0.547065
vt 0.207222 0.460747
vt 0.121985 0.494302
vt 0.120903 0.547065
vt 0.120903 0.460747
vt 0.145336 0.465021
vt 0.207222 0.547065
vt 0.207222 0.460747
vt 0.145336 0.465021
vt 0.120903 0.547065
vt 0.120903 0.460747
vt 0.121985 0.494302
vt 0.207222 0.547065
vt 0.182789 0.465021
vt 0.207222 0.460747
vt 0.120903 0.460747
vt 0.120903 0.547065
vt 0.130319 0.530816
vt 0.206140 0.494302
vt 0.207222 0.460747
vt 0.207222 0.547065
vn -0.516566 0.477743 0.710578
vn -0.516394 0.477798 0.710666
vn -0.516566 0.477743 0.710578
vn -0.516566 0.477743 0.710578
vn -0.516566 0.477743 0.710578
vn -0.516566 0.477743 0.710578
vn -0.835541 0.477669 -0.271484
vn -0.835356 0.477564 -0.272238
vn -0.835541 0.477669 -0.271485
vn -0.835541 0.477669 -0.271484
vn -0.835541 0.477669 -0.271485
vn -0.835541 0.477669 -0.271484
vn -0.000244 0.477743 -0.878500
vn 0.000000 0.478052 -0.878332
vn -0.000244 0.477743 -0.878500
vn -0.000244 0.477743 -0.878500
vn -0.000244 0.477743 -0.878500
vn -0.000244 0.477743 -0.878500
vn 0.000000 1.000000 0.000182
vn 0.000000 1.000000 0.000425
vn 0.000000 1.000000 0.000770
vn 0.000000 1.000000 0.000182
vn 0.000000 1.000000 0.000770
vn 0.000000 1.000000 0.000425
vn 0.000000 1.000000 0.000182
vn 0.000000 1.000000 0.000182
vn 0.000000 1.000000 0.000425
vn 0.516209 0.477864 0.710756
vn 0.516208 0.477864 0.710757
vn 0.516208 0.477864 0.710757
vn 0.516209 0.477864 0.710756
vn 0.516208 0.477864 0.710757
vn 0.516741 0.478322 0.710061
vn 0.835394 0.477864 -0.271595
vn 0.835562 0.477870 -0.271065
vn 0.835394 0.477864 -0.271594
vn 0.835394 0.477864 -0.271595
vn 0.835394 0.477864 -0.271594
vn 0.835394 0.477864 -0.271595
vn 0.000511 -1.000000 0.000167
vn 0.000511 -1.000000 0.000166
vn 0.000512 -1.000000 0.000166
vn 0.000511 -1.000000 0.000166
vn 0.000511 -1.000000 0.000166
vn 0.000511 -1.000000 0.000166
vn 0.000511 -1.000000 0.000167
vn 0.000511 -1.000000 0.000166
vn 0.000511 -1.000000 0.000166
vn -0.559594 0.410163 0.720153
vn -0.534207 0.417968 0.734796
vn -0.559557 0.410175 0.720175
vn -0.559594 0.410163 0.720153
vn -0.559557 0.410175 0.720175
vn -0.559594 0.410163 0.720153
vn -0.872368 0.400075 -0.280919
vn -0.871970 0.399458 -0.283024
vn -0.872367 0.400074 -0.280922
vn -0.872368 0.400075 -0.280919
vn -0.872367 0.400074 -0.280922
vn -0.872367 0.400075 -0.280919
vn -0.048577 0.418690 -0.906829
vn -0.000347 0.406425 -0.913684
vn -0.048506 0.418673 -0.906841
vn -0.048577 0.418690 -0.906829
vn -0.048506 0.418673 -0.906841
vn -0.048577 0.418690 -0.906829
vn -0.000774 1.000000 -0.000686
vn -0.000906 0.999999 -0.000624
vn -0.000774 1.000000 -0.000323
vn -0.000887 0.999999 -0.000762
vn -0.001253 0.999999 -0.000645
vn -0.000906 0.999999 -0.000624
vn -0.000774 1.000000 -0.000686
vn -0.000887 0.999999 -0.000762
vn -0.000906 0.999999 -0.000624
vn 0.560629 0.397084 0.726649
vn 0.540961 0.390100 0.745106
vn 0.560602 0.397075 0.726675
vn 0.560629 0.397084 0.726649
vn 0.560602 0.397075 0.726675
vn 0.560629 0.397085 0.726649
vn 0.876273 0.398518 -0.270794
vn 0.870470 0.402682 -0.283070
vn 0.876265 0.398524 -0.270810
vn 0.876273 0.398518 -0.270794
vn 0.876265 0.398524 -0.270810
vn 0.876273 0.398518 -0.270794
vn 0.001217 -0.999913 0.013116
vn -0.001192 -0.999944 0.010490
vn -0.006892 -0.999920 0.010580
vn 0.002309 -0.999925 0.012012
vn -0.003454 -0.999983 0.004738
vn -0.001192 -0.999944 0.010490
vn 0.001217 -0.999913 0.013116
vn 0.002309 -0.999925 0.012012
vn -0.001192 -0.999944 0.010490
vn -0.593968 0.368196 0.715286
vn -0.543575 0.382503 0.747140
vn -0.593881 0.368222 0.715344
vn -0.593968 0.368196 0.715286
vn -0.593881 0.368222 0.715344
vn -0.593968 0.368196 0.715286
vn -0.894584 0.351405 -0.276107
vn -0.891605 0.348055 -0.289652
vn -0.894579 0.351400 -0.276128
vn -0.894584 0.351405 -0.276107
vn -0.894579 0.351400 -0.276128
vn -0.894584 0.351405 -0.276107
vn -0.100042 0.385727 -0.917173
vn -0.000597 0.364173 -0.931331
vn -0.099869 0.385693 -0.917206
vn -0.100042 0.385727 -0.917173
vn -0.099869 0.385693 -0.917206
vn -0.100042 0.385727 -0.917173
vn -0.001641 0.999999 -0.000380
vn -0.000698 1.000000 -0.000267
vn -0.001641 0.999997 -0.001611
vn -0.000836 1.000000 0.000152
vn 0.001770 0.999998 0.000644
vn -0.000698 1.000000 -0.000267
vn -0.001641 0.999999 -0.000380
vn -0.000836 1.000000 0.000152
vn -0.000698 1.000000 -0.000267
vn 0.598092 0.340602 0.725449
vn 0.555579 0.327586 0.764212
vn 0.598030 0.340584 0.725509
vn 0.598092 0.340602 0.725449
vn 0.598030 0.340584 0.725509
vn 0.598092 0.340602 0.725449
vn 0.901392 0.344564 -0.262237
vn 0.889776 0.353538 -0.288635
vn 0.901377 0.344577 -0.262272
vn 0.901392 0.344564 -0.262237
vn 0.901377 0.344577 -0.262272
vn 0.901392 0.344564 -0.262237
vn 0.001606 -0.999676 0.025394
vn -0.005760 -0.999827 0.017699
vn -0.014829 -0.999681 0.020463
vn 0.002635 -0.999757 0.021901
vn -0.016991 -0.999856 -0.000676
vn -0.005760 -0.999827 0.017699
vn 0.001606 -0.999676 0.025394
vn 0.002635 -0.999757 0.021901
vn -0.005760 -0.999827 0.017699
vn -0.576951 0.332526 0.746026
vn -0.553122 0.338887 0.761060
vn -0.576907 0.332538 0.746054
vn -0.576951 0.332526 0.746026
vn -0.576907 0.332538 0.746054
vn -0.576951 0.332526 0.746026
vn -0.902346 0.328591 -0.278927
vn -0.899231 0.325556 -0.292228
vn -0.902340 0.328585 -0.278952
vn -0.902346 0.328591 -0.278927
vn -0.902340 0.328585 -0.278952
vn -0.902346 0.328591 -0.278927
vn -0.049176 0.338664 -0.939622
vn -0.000198 0.327817 -0.944741
vn -0.049088 0.338645 -0.939633
vn -0.049176 0.338664 -0.939622
vn -0.049088 0.338645 -0.939633
vn -0.049176 0.338664 -0.939622
vn -0.000455 1.000000 -0.000421
vn -0.000736 1.000000 -0.000370
vn -0.000455 1.000000 0.000000
vn -0.000695 1.000000 -0.000526
vn -0.001472 0.999999 -0.000446
vn -0.000736 1.000000 -0.000370
vn -0.000455 1.000000 -0.000421
vn -0.000695 1.000000 -0.000526
vn -0.000736 1.000000 -0.000370
vn 0.568034 0.325635 0.755844
vn 0.556158 0.322178 0.766087
vn 0.568013 0.325629 0.755862
vn 0.568034 0.325635 0.755844
vn 0.568013 0.325629 0.755862
vn 0.568034 0.325635 0.755844
vn 0.902056 0.325685 -0.283238
vn 0.898301 0.328064 -0.292282
vn 0.902050 0.325689 -0.283253
vn 0.902056 0.325685 -0.283238
vn 0.902050 0.325689 -0.283253
vn 0.902056 0.325685 -0.283238
vn 0.000465 -0.999957 0.009281
vn -0.006323 -0.999979 0.001115
vn -0.009696 -0.999934 0.006092
vn -0.001218 -0.999992 0.003876
vn -0.019864 -0.999602 -0.020035
vn -0.006323 -0.999979 0.001115
vn 0.000465 -0.999957 0.009281
vn -0.001218 -0.999992 0.003876
vn -0.006323 -0.999979 0.001115
vn -0.433884 0.000000 0.900969
vn -0.433884 0.000000 0.900969
vn -0.433884 0.000000 0.900969
vn -0.433884 0.000000 0.900969
vn -0.433884 0.000000 0.900969
vn -0.433884 0.000000 0.900969
vn -0.974928 0.000000 0.222521
vn -0.974928 0.000000 0.222521
vn -0.974928 0.000000 0.222521
vn -0.974928 0.000000 0.222521
vn -0.974928 0.000000 0.222521
vn -0.974928 0.000000 0.222521
vn -0.781832 0.000000 -0.623490
vn -0.781831 0.000000 -0.623490
vn -0.781831 0.000000 -0.623490
vn -0.781832 0.000000 -0.623490
vn -0.781831 0.000000 -0.623490
vn -0.781832 0.000000 -0.623490
vn 0.000000 0.000000 -1.000000
vn 0.000000 0.000000 -1.000000
vn 0.000000 0.000000 -1.000000
vn 0.000000 0.000000 -1.000000
vn 0.000000 0.000000 -1.000000
vn 0.000000 0.000000 -1.000000
vn 0.781831 0.000000 -0.623490
vn 0.781832 0.000000 -0.623490
vn 0.781832 0.000000 -0.623490
vn 0.781831 0.000000 -0.623490
vn 0.781832 0.000000 -0.623490
vn 0.781831 0.000000 -0.623490
vn 0.000000 1.000000 0.000000
vn 0.000000 1.000000 0.000000
vn 0.000000 1.000000 0.000000
vn 0.000000 1.000000 0.000000
vn 0.000000 1.000000 0.000000
vn 0.000000 1.000000 0.000000
vn 0.000000 1.000000 0.000000
vn 0.000000 1.000000 0.000000
vn 0.000000 1.000000 0.000000
vn 0.000000 1.000000 0.000000
vn 0.000000 1.000000 0.000000
vn 0.000000 1.000000 0.000000
vn 0.000000 1.000000 0.000000
vn 0.000000 1.000000 0.000000
vn 0.000000 1.000000 0.000000
vn 0.433884 0.000000 0.900969
vn 0.433884 0.000000 0.900969
vn 0.433884 0.000000 0.900969
vn 0.433884 0.000000 0.900969
vn 0.433884 0.000000 0.900969
vn 0.433884 0.000000 0.900969
vn 0.974928 0.000000 0.222521
vn 0.974928 0.000000 0.222521
vn 0.974928 0.000000 0.222521
vn 0.974928 0.000000 0.222521
vn 0.974928 0.000000 0.222521
vn 0.974928 0.000000 0.222521
vn 0.000000 -1.000000 0.000000
vn 0.000000 -1.000000 0.000000
vn 0.000000 -1.000000 0.000000
vn 0.000000 -1.000000 0.000000
vn 0.000000 -1.000000 0.000000
vn 0.000000 -1.000000 0.000000
vn 0.000000 -1.000000 0.000000
vn 0.000000 -1.000000 0.000000
vn 0.000000 -1.000000 0.000000
vn 0.000000 -1.000000 0.000000
vn 0.000000 -1.000000 0.000000
vn 0.000000 -1.000000 0.000000
vn 0.000000 -1.000000 0.000000
vn 0.000000 -1.000000 0.000000
vn 0.000000 -1.000000 0.000000
f 1/1/1 4/4/2 10/10/3
f 1/1/4 10/10/5 7/7/6
f 8/8/7 11/11/8 16/16/9
f 8/8/10 16/16/11 13/13/12
f 14/14/13 17/17/14 22/22/15
f 14/14/16 22/22/17 19/19/18
f 12/12/19 23/23/20 18/18/21
f 5/5/22 28/28/23 23/23/24
f 12/12/25 5/5/26 23/23/27
f 6/6/28 2/2/29 25/25/30
f 6/6/31 25/25/32 29/29/33
f 20/20/34 24/24/35 30/30/36
f 20/20/37 30/30/38 26/26/39
f 3/3/40 21/21/41 27/27/42
f 9/9/43 15/15/44 21/21/45
f 3/3/46 9/9/47 21/21/48
f 31/31/49 34/34/50 40/40/51
f 31/31/52 40/40/53 37/37/54
f 38/38/55 41/41/56 46/46/57
f 38/38/58 46/46/59 43/43/60
f 44/44/61 47/47/62 52/52/63
f 44/44/64 52/52/65 49/49/66
f 42/42/67 53/53/68 48/48/69
f 35/35/70 58/58/71 53/53/72
f 42/42/73 35/35/74 53/53/75
f 55/55/76 59/59/77 36/36/78
f 55/55/79 36/36/80 32/32/81
f 50/50/82 54/54/83 60/60/84
f 50/50/85 60/60/86 56/56/87
f 33/33/88 51/51/89 57/57/90
f 39/39/91 45/45/92 51/51/93
f 33/33/94 39/39/95 51/51/96
f 61/61/97 64/64/98 70/70/99
f 61/61/100 70/70/101 67/67/102
f 68/68/103 71/71/104 76/76/105
f 68/68/106 76/76/107 73/73/108
f 74/74/109 77/77/110 82/82/111
f 74/74/112 82/82/113 79/79/114
f 72/72/115 83/83/116 78/78/117
f 65/65/118 88/88/119 83/83/120
f 72/72/121 65/65/122 83/83/123
f 85/85/124 89/89/125 66/66/126
f 85/85/127 66/66/128 62/62/129
f 80/80/130 84/84/131 90/90/132
f 80/80/133 90/90/134 86/86/135
f 63/63/136 81/81/137 87/87/138
f 69/69/139 75/75/140 81/81/141
f 63/63/142 69/69/143 81/81/144
f 91/91/145 94/94/146 100/100/147
f 91/91/148 100/100/149 97/97/150
f 98/98/151 101/101/152 106/106/153
f 98/98/154 106/106/155 103/103/156
f 104/104/157 107/107/158 112/112/159
f 104/104/160 112/112/161 109/109/162
f 102/102/163 113/113/164 108/108/165
f 95/95/166 118/118/167 113/113/168
f 102/102/169 95/95/170 113/113/171
f 115/115/172 119/119/173 96/96/174
f 115/115/175 96/96/176 92/92/177
f 110/110/178 114/114/179 120/120/180
f 110/110/181 120/120/182 116/116/183
f 93/93/184 111/111/185 117/117/186
f 99/99/187 105/105/188 111/111/189
f 93/93/190 99/99/191 111/111/192
f 121/121/193 124/124/194 130/130/195
f 121/121/196 130/130/197 127/127/198
f 128/128/199 131/131/200 136/136/201
f 128/128/202 136/136/203 133/133/204
f 134/134/205 137/137/206 142/142/207
f 134/134/208 142/142/209 139/139/210
f 140/140/211 143/143/212 148/148/213
f 140/140/214 148/148/215 145/145/216
f 146/146/217 149/149/218 154/154/219
f 146/146/220 154/154/221 151/151/222
f 132/132/223 144/144/224 138/138/225
f 155/155/226 150/150/227 144/144/228
f 125/125/229 160/160/230 155/155/231
f 132/132/232 125/125/233 144/144/234
f 125/125/235 155/155/236 144/144/237
f 157/157/238 161/161/239 126/126/240
f 157/157/241 126/126/242 122/122/243
f 152/152/244 156/156/245 162/162/246
f 152/152/247 162/162/248 158/158/249
f 123/123/250 153/153/251 159/159/252
f 141/141/253 147/147/254 153/153/255
f 129/129/256 135/135/257 141/141/258
f 123/123/259 129/129/260 153/153/261
f 129/129/262 141/141/263 153/153/264
